<svg width="18" height="19" viewBox="0 0 18 19" fill="none" xmlns="http://www.w3.org/2000/svg">
<path d="M15.1875 11.5H14.0625C13.7461 11.5 13.5 11.7812 13.5 12.0625V16H2.25V4.75H7.3125C7.59375 4.75 7.875 4.50391 7.875 4.1875V3.0625C7.875 2.78125 7.59375 2.5 7.3125 2.5H1.6875C0.738281 2.5 0 3.27344 0 4.1875V16.5625C0 17.5117 0.738281 18.25 1.6875 18.25H14.0625C14.9766 18.25 15.75 17.5117 15.75 16.5625V12.0625C15.75 11.7812 15.4688 11.5 15.1875 11.5ZM16.6641 0.25H11.1094C10.5469 0.25 10.125 0.707031 10.125 1.23438V1.90234C10.125 2.42969 10.5469 2.85156 11.0742 2.85156C11.1094 2.85156 11.1094 2.85156 11.1094 2.85156L13.5 2.78125L4.74609 11.5C4.57031 11.6406 4.46484 11.8516 4.46484 12.0977C4.46484 12.3086 4.57031 12.5195 4.74609 12.6953L5.55469 13.5039H5.58984C5.73047 13.6797 5.94141 13.75 6.15234 13.75C6.39844 13.75 6.60938 13.6797 6.75 13.5039L15.4688 4.75L15.3984 7.14062C15.3984 7.70312 15.8203 8.125 16.3828 8.125H17.0156C17.543 8.125 18 7.70312 18 7.14062V1.58594C18 0.847656 17.4023 0.25 16.6641 0.25Z" fill="#4D62E4"/>
</svg>
